[{
    "date": "2013-01-16",
    "market1": 71,
    "market2": 75
}, {
    "date": "2013-01-17",
    "market1": 80,
    "market2": 84
}, {
    "date": "2013-01-18",
    "market1": 78,
    "market2": 83
}, {
    "date": "2013-01-19",
    "market1": 85,
    "market2": 88
}, {
    "date": "2013-01-20",
    "market1": 87,
    "market2": 85
}, {
    "date": "2013-01-21",
    "market1": 97,
    "market2": 88
}, {
    "date": "2013-01-22",
    "market1": 93,
    "market2": 88
}, {
    "date": "2013-01-23",
    "market1": 85,
    "market2": 80
}, {
    "date": "2013-01-24",
    "market1": 90,
    "market2": 85
}]